label,sequence,binder,binding site
r1,AGTGATGATGTGTGGTAGGC,NB,n/a
r2,AGTGTAGGTGTGGATGATGC,NB,n/a
r3,TAGGTTTTGGGTAGCGTGGT,NB,n/a
r4,AGGGATGATGTGTGGCAGGA,NB,n/a
r5,CTAGGACGGGTAGGGCGGTG,NB,n/a
r6,AGGGATGTGTGTGGTAGGCT,NB,n/a
r7,AGGGATGCTGCGTGGTAGGC,B,II
r8,GAGGGTTGGTGTGGTTGGCA,B,I
r9,AGGGTTGGTGTGTGGTTGGC,B,I
r10,ATGGTTGGTTTATGGTTGGC,B,I
r11,GAAGGGTGGTCAGGGTGGGA,B,I
r12,GGAGGGTGGGTCGGGTGGGA,B,n/a
r13,GGGGTTGGTACAGGGTTGGC,B,I
r14,AGATGGGCAGGTTGGTGCGG,B,I
r15,AGATGGGTGGGTAGGGTGGG,B,n/a
r16,ATAGGGTGGGTGGGTGGGTA,B,n/a
r17,TGGTGGTTGGGTTGGGTTGG,B,I
r18,TGGGATGGGATTGGTAGGCG,NB,n/a
r19,AGGGTTGGTTATGTGGTTGG,B,I
r20,ATTGGTTGGGTAGGGTGGTT,B,I
r21,AAACGGTTGGTGAGGTTGGT,B,I
r22,CGGGGTGGTGTGGGTGGGAG,B,n/a
r23,TATTGGTTGGATAGGTTGGT,B,I
d1,AGGGTAGGTGTGGGGTATGC,NB,n/a
d2,AGGGTAGATGTGTAGGATGC,NB,n/a
d3,AGGGATGATGGTTGGTAGGC,NB,n/a
d4,AGGGATGATGTGGATTAGGC,NB,n/a
d5,AGGGTGGGAGCGGGGGACGC,NB,n/a
d6,CGGGTAGGTGTGGATTATGC,NB,n/a
d7,GTAGGACGGGTAGGGCGGTC,NB,n/a
d8,GGGGGTTGGGCGGGATGGGC,NB,n/a
d9,GCGGGTTGGGCAGGATCAGC,NB,n/a
d11,GTAGGATGGGTGGGGTGGGA,B,I
d12,GTAGGATGGGTAGGGTGGTA,B,I
d13,CTAGGTTGGGTAGGGTGGTG,B,I
d14,CTAGCATGGGTAGGGTGGTG,B,I
d15,GTAGCATGGGTAGGGTGGTC,NB,n/a
d16,TTGGGTGGTGTAGGTTGGCG,B,I
d17,TTGGGTGGTGCAGGTTCGCG,NB,n/a
p1,AGGGATGATGTGTGGTTGGC,B,I
p2,AGGGATGGTGTGTGGTAGGC,B,II
p3,AGGGTTGATGTGTGGTAGGC,B,II
p4,AGGGATGGTGTGTGGTTGGC,B,I
p5,AGGGTTGATGTGTGGTTGGC,B,I
p6,AGGGTTGGTGTGTGGTAGGC,B,II
r24,AGGGTTGGGTGGTTGGATGA,B,I
r25,CGGGTTGGGGGGTTGGATTC,B,I
r26,CGGTTGGGGGGGTTGGATAC,B,I
r27,TGTGGGTTGGTGAGGTAGGT,NB,n/a
